{
	"pages": [
		//pages数组中第一项表示应用启动页，参考：https://uniapp.dcloud.io/collocation/pages
		{
			"path": "pages/index/index", // 机会主页面
			"style": {
				"usingComponents": {
					"nav-bar": "/components/navbar",
					"van-search": "/wxcomponents/vant/dist/search/index",
					"van-tab": "/wxcomponents/vant/dist/tab/index",
					"van-tabs": "/wxcomponents/vant/dist/tabs/index",
					"van-popup": "/wxcomponents/vant/dist/popup/index"
				},
				"navigationStyle": "custom",
				"enablePullDownRefresh": true
			}
		}, {
			"path": "pages/dataIndex/dataIndex",
			"style": {
				"navigationStyle": "custom",
				"usingComponents": {
					"van-calendar": "/wxcomponents/vant/dist/calendar/index",
					"van-row": "/wxcomponents/vant/dist/row/index",
					"van-col": "/wxcomponents/vant/dist/col/index"
				}
			}
		}
    ],
	"subPackages": [{
			"root": "pages/pagesClient", // 客户分包
			"pages": [
				{
					"path": "select/select",
					"style": {
						"usingComponents": {
							"nav-bar": "/components/navbar",
							"van-search": "/wxcomponents/vant/dist/search/index",
							"van-radio": "/wxcomponents/vant/dist/radio/index",
							"van-radio-group": "/wxcomponents/vant/dist/radio-group/index",
							"van-button": "/wxcomponents/vant/dist/button/index",
							"van-popup": "/wxcomponents/vant/dist/popup/index"
						},
						"navigationStyle": "custom",
						"enablePullDownRefresh": true
					}
				},
				{
					"path": "add/add",
					"style": {
						"usingComponents": {
							"nav-bar": "/components/navbar",
							"van-search": "/wxcomponents/vant/dist/search/index",
							"van-radio": "/wxcomponents/vant/dist/radio/index",
							"van-radio-group": "/wxcomponents/vant/dist/radio-group/index",
							"van-button": "/wxcomponents/vant/dist/button/index",
							"van-popup": "/wxcomponents/vant/dist/popup/index",
							"van-cell": "/wxcomponents/vant/dist/cell/index",
							"van-cell-group": "/wxcomponents/vant/dist/cell-group/index",
							"van-field": "/wxcomponents/vant/dist/field/index",
							"van-collapse": "/wxcomponents/vant/dist/collapse/index",
							"van-collapse-item": "/wxcomponents/vant/dist/collapse-item/index"
						},
						"navigationStyle": "custom"
					}
				},
				{
					"path": "detail/detail",
					"style": {
						"usingComponents": {
							"nav-bar": "/components/navbar",
							"van-button": "/wxcomponents/vant/dist/button/index",
							"van-popup": "/wxcomponents/vant/dist/popup/index"
						},
						"navigationStyle": "custom",
						"enablePullDownRefresh": true
					}
				},
				{
					"path": "custom/custom",
					"style": {
						"usingComponents": {
							"nav-bar": "/components/navbar",
							"van-button": "/wxcomponents/vant/dist/button/index",
							"van-popup": "/wxcomponents/vant/dist/popup/index",
							"van-field": "/wxcomponents/vant/dist/field/index"
						},
						"navigationStyle": "custom"
					}
				},
				{
					"path": "from/from",
					"style": {
						"usingComponents": {
							"nav-bar": "/components/navbar",
							"van-popup": "/wxcomponents/vant/dist/popup/index",
							"van-field": "/wxcomponents/vant/dist/field/index",
							"van-action-sheet": "/wxcomponents/vant/dist/action-sheet/index"
						},
						"navigationStyle": "custom"
					}
				},
				{
					"path": "tags/tags",
					"style": {
						"usingComponents": {
							"nav-bar": "/components/navbar",
							"van-search": "/wxcomponents/vant/dist/search/index",
							"van-popup": "/wxcomponents/vant/dist/popup/index",
							"van-field": "/wxcomponents/vant/dist/field/index"
						},
						"navigationStyle": "custom"
					}
				},
				{
					"path": "communicateAdd/communicateAdd",
					"style": {
						"usingComponents": {
							"nav-bar": "/components/navbar",
							"van-button": "/wxcomponents/vant/dist/button/index",
							"van-popup": "/wxcomponents/vant/dist/popup/index",
							"van-cell": "/wxcomponents/vant/dist/cell/index",
							"van-cell-group": "/wxcomponents/vant/dist/cell-group/index",
							"van-field": "/wxcomponents/vant/dist/field/index",
							"van-picker": "/wxcomponents/vant/dist/picker/index",
							"van-datetime-picker": "/wxcomponents/vant/dist/datetime-picker/index"
						},
						"navigationStyle": "custom"
					}
				},
				{
					"path": "progressAdd/progressAdd",
					"style": {
						"usingComponents": {
							"nav-bar": "/components/navbar",
							"van-button": "/wxcomponents/vant/dist/button/index",
							"van-popup": "/wxcomponents/vant/dist/popup/index",
							"van-cell": "/wxcomponents/vant/dist/cell/index",
							"van-cell-group": "/wxcomponents/vant/dist/cell-group/index",
							"van-field": "/wxcomponents/vant/dist/field/index",
							"van-picker": "/wxcomponents/vant/dist/picker/index",
							"van-datetime-picker": "/wxcomponents/vant/dist/datetime-picker/index",
							"van-checkbox": "/wxcomponents/vant/dist/checkbox/index",
							"van-checkbox-group": "/wxcomponents/vant/dist/checkbox-group/index"
						},
						"navigationStyle": "custom"
					}
				},
				{
					"path": "progressDetail/progressDetail",
					"style": {
						"usingComponents": {
							"nav-bar": "/components/navbar",
							"van-search": "/wxcomponents/vant/dist/search/index",
							"van-checkbox": "/wxcomponents/vant/dist/checkbox/index",
							"van-checkbox-group": "/wxcomponents/vant/dist/checkbox-group/index",
							"van-button": "/wxcomponents/vant/dist/button/index",
							"van-popup": "/wxcomponents/vant/dist/popup/index",
							"van-cell": "/wxcomponents/vant/dist/cell/index",
							"van-cell-group": "/wxcomponents/vant/dist/cell-group/index",
							"van-field": "/wxcomponents/vant/dist/field/index",
							"van-radio": "/wxcomponents/vant/dist/radio/index",
							"van-radio-group": "/wxcomponents/vant/dist/radio-group/index",
							"van-picker": "/wxcomponents/vant/dist/picker/index",
							"van-datetime-picker": "/wxcomponents/vant/dist/datetime-picker/index"
						},
						"navigationStyle": "custom"
					}
				},
				{
					"path": "progress/progress",
					"style": {
						"usingComponents": {
							"nav-bar": "/components/navbar",
							"van-slider": "/wxcomponents/vant/dist/slider/index"
						},
						"navigationStyle": "custom"
					}
				}
			]
		},
		{
			"root": "pages/pagesChance", // 机会分包
			"pages": [{
					"path": "index/index",
					"style": {
						"usingComponents": {
							"nav-bar": "/components/navbar",
							"van-search": "/wxcomponents/vant/dist/search/index",
							"van-tab": "/wxcomponents/vant/dist/tab/index",
							"van-tabs": "/wxcomponents/vant/dist/tabs/index",
							"van-popup": "/wxcomponents/vant/dist/popup/index"
						},
						"navigationStyle": "custom"
					}
				},
				{
					"path": "add/add",
					"style": {
						"usingComponents": {
							"nav-bar": "/components/navbar",
							"van-button": "/wxcomponents/vant/dist/button/index",
							"van-popup": "/wxcomponents/vant/dist/popup/index",
							"van-cell": "/wxcomponents/vant/dist/cell/index",
							"van-cell-group": "/wxcomponents/vant/dist/cell-group/index",
							"van-field": "/wxcomponents/vant/dist/field/index",
							"van-picker": "/wxcomponents/vant/dist/picker/index"
						},
						"navigationStyle": "custom"
					}
				},
				{
					"path": "detail/detail",
					"style": {
						"usingComponents": {
							"nav-bar": "/components/navbar",
							"van-popup": "/wxcomponents/vant/dist/popup/index",
							"van-button": "/wxcomponents/vant/dist/button/index",
							"van-action-sheet": "/wxcomponents/vant/dist/action-sheet/index"
						},
						"navigationStyle": "custom",
						"enablePullDownRefresh": true
					}
				},
				{
					"path": "money/money",
					"style": {
						"usingComponents": {
							"nav-bar": "/components/navbar",
							"van-cell": "/wxcomponents/vant/dist/cell/index",
							"van-cell-group": "/wxcomponents/vant/dist/cell-group/index",
							"van-field": "/wxcomponents/vant/dist/field/index",
							"van-popup": "/wxcomponents/vant/dist/popup/index",
							"van-button": "/wxcomponents/vant/dist/button/index",
							"van-divider": "/wxcomponents/vant/dist/divider/index"
						},
						"navigationStyle": "custom"
					}
				},
				{
					"path": "select/select",
					"style": {
						"usingComponents": {
							"nav-bar": "/components/navbar",
							"van-search": "/wxcomponents/vant/dist/search/index",
							"van-tab": "/wxcomponents/vant/dist/tab/index",
							"van-tabs": "/wxcomponents/vant/dist/tabs/index",
							"van-popup": "/wxcomponents/vant/dist/popup/index"
						},
						"navigationStyle": "custom",
						"enablePullDownRefresh": true
					}
				}
			]
		},
		{
			"root": "pages/pagesData", // 数据分包
			"pages": [{
					"path": "index/index",
					"style": {
						"navigationStyle": "custom",
						"usingComponents": {
							"van-calendar": "/wxcomponents/vant/dist/calendar/index",
							"van-row": "/wxcomponents/vant/dist/row/index",
							"van-col": "/wxcomponents/vant/dist/col/index"
						}
					}
				}, {
					"path": "sourceDetail/sourceDetail",
					"style": {
						"navigationStyle": "custom",
						"usingComponents": {
							"van-row": "/wxcomponents/vant/dist/row/index",
							"van-col": "/wxcomponents/vant/dist/col/index"
						}
					}
				},
				{
					"path": "details/details",
					"style": {
						"navigationStyle": "custom"
					}
				}
			]
		},
		{
			"root": "pages/pagesGrow", // 成长分包
			"pages": [{
					"path": "index/index",
					"style": {
						"navigationStyle": "custom"
					}
				},
				{
					"path": "share/share",
					"style": {
						"navigationStyle": "custom",
						"usingComponents": {
							"van-field": "/wxcomponents/vant/dist/field/index"
						}
					}
				},
				{
					"path": "analysis/analysis",
					"style": {
						"navigationStyle": "custom",
						"usingComponents": {
							"van-search": "/wxcomponents/vant/dist/search/index"
						},
						"enablePullDownRefresh": true
					}
				},
				{
					"path": "feeling/feeling",
					"style": {
						"navigationStyle": "custom",
						"usingComponents": {
							"van-search": "/wxcomponents/vant/dist/search/index",
							"van-action-sheet": "/wxcomponents/vant/dist/action-sheet/index"
						},
						"enablePullDownRefresh": true
					}
				},
				{
					"path": "advance/advance",
					"style": {
						"navigationStyle": "custom"
					}
				},
				{
					"path": "dealDetail/dealDetail",
					"style": {
						"navigationStyle": "custom"
					}
				},
				{
					"path": "caseDetail/caseDetail",
					"style": {
						"navigationStyle": "custom"
					}
				},
				{
					"path": "caseTemplate/caseTemplate",
					"style": {
						"navigationStyle": "custom",
						"enablePullDownRefresh": true
					}
				},
				{
					"path": "newCase/newCase",
					"style": {
						"navigationStyle": "custom",
						"usingComponents": {
							"van-field": "/wxcomponents/vant/dist/field/index"
						}

					}
				},
				{
					"path": "newFeeling/newFeeling",
					"style": {
						"navigationStyle": "custom",
						"usingComponents": {
							"van-icon": "/wxcomponents/vant/dist/icon/index",
							"van-field": "/wxcomponents/vant/dist/field/index"
						}
					}
				}, {
					"path": "feeling/shareFeeling",
					"style": {
						"navigationStyle": "custom",
						"usingComponents": {
							"van-icon": "/wxcomponents/vant/dist/icon/index"
						}
					}
				},
				{
					"path": "newExperience/newExperience",
					"style": {
						"navigationStyle": "custom",
						"usingComponents": {
							"van-field": "/wxcomponents/vant/dist/field/index",
							"van-icon": "/wxcomponents/vant/dist/icon/index"
						}
					}
				},

				{
					"path": "experience/experience",
					"style": {
						"navigationStyle": "custom",
						"usingComponents": {
							"van-search": "/wxcomponents/vant/dist/search/index"
						},
						"enablePullDownRefresh": true
					}
				}, {
					"path": "experience/shareExperience",
					"style": {
						"navigationStyle": "custom",
						"usingComponents": {
							"van-field": "/wxcomponents/vant/dist/field/index",
							"van-icon": "/wxcomponents/vant/dist/icon/index"
						}
					}
				},
				{
					"path": "strength/strength",
					"style": {
						"navigationBarBackgroundColor":"#12de9f",
						"navigationBarTitleText":"实力评估系统",
						"navigationBarTextStyle":"white"
						// "navigationStyle": "custom"
					}
				},
				{
					"path": "newTemplate/newTemplate",
					"style": {
						"navigationStyle": "custom",
						"usingComponents": {
							"van-field": "/wxcomponents/vant/dist/field/index"
						}
					}
				}, {
					"path": "shareInfo/shareInfo",
					"style": {
						"navigationStyle": "custom"
					}
				}, {
					"path": "webview/webview",
					"style": {
						"navigationStyle": "custom"
					}
				}, {
					"path": "video/video"
				}, {
					"path": "textpage/textpage"
				},
				{
					"path": "topic/index/index",
					"style": {
						"enablePullDownRefresh": true,
						"navigationStyle": "custom",
						"usingComponents":{
							"van-search": "/wxcomponents/vant/dist/search/index"
						}
					}
				},{
					"path": "topic/detail/detail",
					"style": {
						"navigationStyle": "custom",
						"usingComponents": {
							"van-icon": "/wxcomponents/vant/dist/icon/index",
							"van-field": "/wxcomponents/vant/dist/field/index"
						},
						"enablePullDownRefresh": true
					}
				},
				{
					"path": "topic/comment/comment",
					"style": {
						"navigationStyle": "custom",
						"usingComponents": {
							"van-icon": "/wxcomponents/vant/dist/icon/index",
							"van-field": "/wxcomponents/vant/dist/field/index"
						}
					}
				},
				{
					"path": "topic/message/message",
					"style": {
						"navigationStyle": "custom",
						"enablePullDownRefresh": true,
						"usingComponents": {
							"van-icon": "/wxcomponents/vant/dist/icon/index",
							"van-field": "/wxcomponents/vant/dist/field/index"
						}
					}
				},
				{
					"path": "topic/question/question",
					"style": {
						"navigationStyle": "custom",
						"enablePullDownRefresh": true,
						"usingComponents": {
							"van-radio-group": "/wxcomponents/vant/dist/radio-group/index",
							"van-radio": "/wxcomponents/vant/dist/radio/index",
							"van-button": "/wxcomponents/vant/dist/button/index"
						}
					}
				}, {
					"path": "king/king",
					"style": {
						"usingComponents": {
							"nav-bar": "/components/navbar",
							"van-search": "/wxcomponents/vant/dist/search/index",
							"van-tab": "/wxcomponents/vant/dist/tab/index",
							"van-tabs": "/wxcomponents/vant/dist/tabs/index",
							"van-popup": "/wxcomponents/vant/dist/popup/index",
							"van-collapse": "/wxcomponents/vant/dist/collapse/index",
							"van-collapse-item": "/wxcomponents/vant/dist/collapse-item/index",
							"van-cell": "/wxcomponents/vant/dist/cell/index",
							"van-cell-group": "/wxcomponents/vant/dist/cell-group/index"
						},
						"navigationStyle": "custom",
						"enablePullDownRefresh": true
					}
				}
			]
		},
		{
			"root": "pages/pagesPerson", // 个人中心分包
			"pages": [{
					"path": "agreement/agreement",
					"style": {
						"navigationStyle": "custom",
						"usingComponents": {
							"nav-bar": "/components/navbar"
						}
					}
				},{
					"path": "manage/manage",
					"style": {
						"navigationStyle": "custom",
						"usingComponents": {
							"nav-bar": "/components/navbar",
							"van-cell": "/wxcomponents/vant/dist/cell/index",
							"van-cell-group": "/wxcomponents/vant/dist/cell-group/index"
						}
					}
				}, {
					"path": "index/index",
					"style": {
						"navigationStyle": "custom",
						"usingComponents": {
							"nav-bar": "/components/navbar",
							"van-popup": "/wxcomponents/vant/dist/popup/index",
							"van-button": "/wxcomponents/vant/dist/button/index",
							"van-cell": "/wxcomponents/vant/dist/cell/index",
							"van-cell-group": "/wxcomponents/vant/dist/cell-group/index",
							"van-switch": "/wxcomponents/vant/dist/switch/index",
							"van-action-sheet": "/wxcomponents/vant/dist/action-sheet/index"
						}
					}
				},
				{
					"path": "vip/vip",
					"style": {
						"navigationStyle": "custom",
						"usingComponents": {
							"nav-bar": "/components/navbar",
							"van-popup": "/wxcomponents/vant/dist/popup/index",
							"van-field": "/wxcomponents/vant/dist/field/index",
							"van-checkbox": "/wxcomponents/vant/dist/checkbox/index",
							"van-button": "/wxcomponents/vant/dist/button/index"
						}
					}
				},
				{
					"path": "account/account",
					"style": {
						"navigationStyle": "custom",
						"usingComponents": {
							"van-field": "/wxcomponents/vant/dist/field/index",
							"van-button": "/wxcomponents/vant/dist/button/index",
							"van-checkbox": "/wxcomponents/vant/dist/checkbox/index",
							"van-tab": "/wxcomponents/vant/dist/tab/index",
							"van-tabs": "/wxcomponents/vant/dist/tabs/index"
						}
					}
				},
				{
					"path": "questionnaire/questionnaire",
					"style": {
						"navigationStyle": "custom",
						"usingComponents": {
							"van-radio-group": "/wxcomponents/vant/dist/radio-group/index",
							"van-radio": "/wxcomponents/vant/dist/radio/index",
							"van-button": "/wxcomponents/vant/dist/button/index"
						}
					}
				},
				{
					"path": "feedback/feedback",
					"style": {
						"navigationStyle": "custom",
						"usingComponents": {
							"nav-bar": "/components/navbar",
							"van-popup": "/wxcomponents/vant/dist/popup/index",
							"van-field": "/wxcomponents/vant/dist/field/index",
							"van-checkbox": "/wxcomponents/vant/dist/checkbox/index",
							"van-button": "/wxcomponents/vant/dist/button/index",
							"van-icon": "/wxcomponents/vant/dist/icon/index"
						}
					}
				},
				{
					"path": "couponCode/couponCode",
					"style": {
						"navigationStyle": "custom",
						"usingComponents": {
							"nav-bar": "/components/navbar",
							"van-field": "/wxcomponents/vant/dist/field/index"
						}
					}
				},
				{
					"path": "collection/collection",
					"style": {
						"navigationStyle": "custom",
						"usingComponents": {
							"nav-bar": "/components/navbar"
						},
						"enablePullDownRefresh": true
					}
				}
			]
		}
	],
	"globalStyle": {
		"navigationBarTextStyle": "black",
		"navigationBarTitleText": "销Soul",
		"navigationBarBackgroundColor": "#F8F8F8",
		"backgroundColor": "#F8F8F8",
		"usingComponents": {
			"van-loading": "/wxcomponents/vant/dist/loading/index"
		}
	},
	"condition": {
		//模式配置，仅开发期间生效
		"current": 0//当前激活的模式（list 的索引项）
		// "list": [{
		// 		"name": "client", //模式名称
		// 		"path": "pages/pagesClient/index/index", //启动页面，必选
		// 		"query": "" //启动参数，在页面的onLoad函数里面得到。
		// 	},
		// 	{
		// 		"name": "clientselect", //模式名称
		// 		"path": "pages/pagesClient/select/select", //启动页面，必选
		// 		"query": "" //启动参数，在页面的onLoad函数里面得到。
		// 	},
		// 	{
		// 		"name": "communicateadd", //模式名称
		// 		"path": "pages/pagesClient/communicateAdd/communicateAdd", //启动页面，必选
		// 		"query": "" //启动参数，在页面的onLoad函数里面得到。
		// 	},
		// 	{
		// 		"name": "progressdetail", //模式名称
		// 		"path": "pages/pagesClient/progressDetail/progressDetail", //启动页面，必选
		// 		"query": "" //启动参数，在页面的onLoad函数里面得到。
		// 	},
		// 	{
		// 		"name": "progressadd", //模式名称
		// 		"path": "pages/pagesClient/progressAdd/progressAdd", //启动页面，必选
		// 		"query": "opportunityId=6&workflowId=1" //启动参数，在页面的onLoad函数里面得到。
		// 	},
		// 	{
		// 		"name": "progress", //模式名称
		// 		"path": "pages/pagesClient/progress/progress", //启动页面，必选
		// 		"query": "" //启动参数，在页面的onLoad函数里面得到。
		// 	},
		// 	{
		// 		"name": "clientadd", //模式名称
		// 		"path": "pages/pagesClient/add/add", //启动页面，必选
		// 		"query": "" //启动参数，在页面的onLoad函数里面得到。
		// 	},
		// 	{
		// 		"name": "clientdetail", //模式名称
		// 		"path": "pages/pagesClient/detail/detail", //启动页面，必选
		// 		"query": "id=20" //启动参数，在页面的onLoad函数里面得到。
		// 	},
		// 	{
		// 		"name": "clientcustom", //模式名称
		// 		"path": "pages/pagesClient/custom/custom", //启动页面，必选
		// 		"query": "" //启动参数，在页面的onLoad函数里面得到。
		// 	},
		// 	{
		// 		"name": "clientfrom", //模式名称
		// 		"path": "pages/pagesClient/from/from", //启动页面，必选
		// 		"query": "" //启动参数，在页面的onLoad函数里面得到。
		// 	},
		// 	{
		// 		"name": "clienttags", //模式名称
		// 		"path": "pages/pagesClient/tags/tags", //启动页面，必选
		// 		"query": "" //启动参数，在页面的onLoad函数里面得到。
		// 	},
		// 	{
		// 		"name": "chance", //模式名称
		// 		"path": "pages/pagesChance/index/index", //启动页面，必选
		// 		"query": "" //启动参数，在页面的onLoad函数里面得到。
		// 	},
		// 	{
		// 		"name": "chanceadd", //模式名称
		// 		"path": "pages/pagesChance/add/add", //启动页面，必选
		// 		"query": "" //启动参数，在页面的onLoad函数里面得到。
		// 	},
		// 	{
		// 		"name": "chanceselect", //模式名称
		// 		"path": "pages/pagesChance/select/select", //启动页面，必选
		// 		"query": "" //启动参数，在页面的onLoad函数里面得到。
		// 	},
		// 	{
		// 		"name": "chancedetail", //模式名称
		// 		"path": "pages/pagesChance/detail/detail", //启动页面，必选
		// 		"query": "" //启动参数，在页面的onLoad函数里面得到。
		// 	},
		// 	{
		// 		"name": "chancemoney", //模式名称
		// 		"path": "pages/pagesChance/money/money", //启动页面，必选
		// 		"query": "" //启动参数，在页面的onLoad函数里面得到。
		// 	},
		// 	{
		// 		"name": "person", //模式名称
		// 		"path": "pages/pagesPerson/index/index", //启动页面，必选
		// 		"query": "" //启动参数，在页面的onLoad函数里面得到。
		// 	},
		// 	{
		// 		"name": "personvip", //模式名称
		// 		"path": "pages/pagesPerson/vip/vip", //启动页面，必选
		// 		"query": "" //启动参数，在页面的onLoad函数里面得到。
		// 	},
		// 	{
		// 		"name": "personaccount", //模式名称
		// 		"path": "pages/pagesPerson/account/account", //启动页面，必选
		// 		"query": "" //启动参数，在页面的onLoad函数里面得到。
		// 	},
		// 	{
		// 		"name": "personagreement", //模式名称
		// 		"path": "pages/pagesPerson/agreement/agreement", //启动页面，必选
		// 		"query": "" //启动参数，在页面的onLoad函数里面得到。
		// 	},
		// 	{
		// 		"name": "personfeedback", //模式名称
		// 		"path": "pages/pagesPerson/feedback/feedback", //启动页面，必选
		// 		"query": "" //启动参数，在页面的onLoad函数里面得到。
		// 	},
		// 	{
		// 		"name": "personcollection", //模式名称
		// 		"path": "pages/pagesPerson/collection/collection", //启动页面，必选
		// 		"query": "" //启动参数，在页面的onLoad函数里面得到。
		// 	}
		// ]
	}
}
